{
  "$schema": "./node_modules/ng-packagr/ng-package.schema.json",
  "dest": "../../../dist/ta",
  "lib": {
    "languageLevel": [
      "dom",
      "es2017"
    ],
    "entryFile": "public_api.ts"
  },
  "whitelistedNonPeerDependencies": [
    "angular",
    "."
  ]
}
