{
  "$schema": "../../node_modules/ng-packagr/ng-package.schema.json",
  "dest": "../../dist/shared",
  "deleteDestPath": false,
  "lib": {
    "entryFile": "src/public_api.ts"
  },
  "whitelistedNonPeerDependencies": [
  "."
  ]
}
